Leistungselektronik/Labor_Wechselstrom/TEK00000.CSV

Model,TBS2104
Firmware Version,v1.26.0

Point Format,Y,,,
Horizontal Units,S,,,
Horizontal Scale,0.01,,,
Sample Interval,8e-06,,,
Filter Frequency,1e+08,,,
Record Length,20000,,,
Gating,0.0% to 100.0%,0.0% to 100.0%,0.0% to 100.0%,0.0% to 100.0%
Probe Attenuation,20,20,10,100
Vertical Units,V,V,A,V
Vertical Offset,0,0,0,0
Vertical Scale,20,20,2,50
Label,,,,
TIME,CH1,CH2,CH3,CH4
-8.0000e-02,-1.03516,0.09375,-1.4043,149.736
-7.9992e-02,-0.875,0.109375,-1.41797,149.658
-7.9984e-02,-0.804688,0.125,-1.46016,149.697
-7.9976e-02,-0.648438,0.117188,-1.42031,149.814
-7.9968e-02,-0.976562,0.101562,-1.44375,149.775
-7.9960e-02,-0.898438,0.078125,-1.46523,149.609
-7.9952e-02,-0.792969,0.109375,-1.41055,149.57
-7.9944e-02,-0.675781,0.109375,-1.40742,149.697
-7.9936e-02,-0.28125,0.046875,-1.4457,149.727
-7.9928e-02,-0.160156,0.136719,-1.43047,149.736
-7.9920e-02,-0.132812,0.09375,-1.4332,149.746
-7.9912e-02,0.03125,-0.0117188,-1.44609,149.521
-7.9904e-02,-0.265625,0.0742188,-1.43359,149.775
-7.9896e-02,-0.132812,0.078125,-1.43398,149.707
-7.9888e-02,-0.015625,0.125,-1.43594,149.687
-7.9880e-02,0.015625,0.125,-1.44688,149.697
-7.9872e-02,0.464844,0.125,-1.43477,149.697
-7.9864e-02,0.613281,0.15625,-1.43516,149.658
-7.9856e-02,0.726562,0.125,-1.44805,149.668
-7.9848e-02,0.699219,0.078125,-1.42578,149.805
-7.9840e-02,0.445312,0.132812,-1.43398,149.658
-7.9832e-02,0.582031,0.125,-1.44688,149.687
-7.9824e-02,0.625,0.125,-1.43398,149.639
-7.9816e-02,0.777344,0.078125,-1.42578,149.639
-7.9808e-02,1.30859,0.109375,-1.39375,149.697
-7.9800e-02,1.30078,0.0664062,-1.43008,149.57
-7.9792e-02,1.35547,0.09375,-1.41563,149.736
-7.9784e-02,1.51172,0.0898438,-1.4293,149.6
-7.9776e-02,1.28125,-0.0429688,-1.45547,149.697
-7.9768e-02,1.31641,0.125,-1.4332,149.727
-7.9760e-02,1.43359,0.09375,-1.41211,149.531
-7.9752e-02,1.51953,0.125,-1.44102,149.434
-7.9744e-02,1.89453,0.015625,-1.40352,149.658
-7.9736e-02,2.16406,0.121094,-1.39141,149.297
-7.9728e-02,2.14844,0.132812,-1.40352,149.697
-7.9720e-02,2.39062,0.125,-1.38828,149.697
-7.9712e-02,1.98828,0.128906,-1.43008,149.619
-7.9704e-02,2.23438,0.125,-1.40977,149.668
-7.9696e-02,2.28516,0.148438,-1.40195,149.57
-7.9688e-02,2.31641,0.09375,-1.40195,149.648
-7.9680e-02,2.83203,0.125,-1.36289,149.697
-7.9672e-02,2.9375,0.125,-1.39961,149.746
-7.9664e-02,3.13672,0.117188,-1.39531,149.697
-7.9656e-02,3.11719,-0.0898438,-1.37305,149.658
-7.9648e-02,2.86719,0.09375,-1.37813,149.678
-7.9640e-02,2.87891,-0.0234375,-1.39844,149.727
-7.9632e-02,3.04688,0.09375,-1.38281,149.678
-7.9624e-02,3.19141,0.160156,-1.37578,149.639
-7.9616e-02,3.65234,0.121094,-1.35898,149.736
-7.9608e-02,3.87891,0.140625,-1.34336,149.766
-7.9600e-02,3.88672,0.113281,-1.32305,149.766
-7.9592e-02,4.00391,0.078125,-1.34102,149.58
-7.9584e-02,3.71875,0.128906,-1.3668,149.854
-7.9576e-02,3.80078,0.125,-1.35664,149.814
-7.9568e-02,3.86328,0.015625,-1.34492,149.736
-7.9560e-02,4.03906,0.125,-1.33672,149.736
-7.9552e-02,4.43359,0.03125,-1.31094,149.736
-7.9544e-02,4.53516,0.046875,-1.32227,149.707
-7.9536e-02,4.625,0.125,-1.33828,149.824
-7.9528e-02,4.78125,0.125,-1.32227,149.629
-7.9520e-02,4.56641,0.144531,-1.30781,149.668
-7.9512e-02,4.50781,0.132812,-1.31211,149.629
-7.9504e-02,4.74609,0.125,-1.34023,149.551
-7.9496e-02,4.70312,0.09375,-1.31484,149.697
-7.9488e-02,5.28125,-0.0273438,-1.27305,149.697
-7.9480e-02,5.36328,0.09375,-1.28906,149.697
-7.9472e-02,5.41016,0.125,-1.29375,149.678
-7.9464e-02,5.61719,0.09375,-1.28242,149.707
-7.9456e-02,5.32812,0.125,-1.2918,149.775
-7.9448e-02,5.42969,0.109375,-1.29219,149.697
-7.9440e-02,5.47266,0.125,-1.26211,149.541
-7.9432e-02,5.57031,0.09375,-1.28711,149.775
-7.9424e-02,6.125,-0.0117188,-1.23047,149.404
-7.9416e-02,6.14062,0.09375,-1.24648,149.687
-7.9408e-02,6.28516,0.144531,-1.2168,149.619
-7.9400e-02,6.28125,0.144531,-1.2543,149.639
-7.9392e-02,6.05859,0.136719,-1.25938,149.775
-7.9384e-02,6.17578,0.125,-1.25781,149.639
-7.9376e-02,6.29688,0.140625,-1.24219,149.697
-7.9368e-02,6.36328,0.132812,-1.23359,149.512
-7.9360e-02,6.88281,0.125,-1.1957,149.697
-7.9352e-02,6.97266,0.125,-1.22578,149.648
-7.9344e-02,7.13281,0.078125,-1.18555,149.687
-7.9336e-02,7.04688,0.125,-1.16953,149.619
-7.9328e-02,6.91016,0.125,-1.19141,149.814
-7.9320e-02,6.86328,0.125,-1.18555,149.775
-7.9312e-02,7.04688,0.109375,-1.16836,149.355
-7.9304e-02,7.19141,0.09375,-1.1543,149.687
-7.9296e-02,7.50781,0.132812,-1.12227,149.678
-7.9288e-02,7.64062,0.09375,-1.13672,149.736
-7.9280e-02,7.81641,0.140625,-1.13047,149.551
-7.9272e-02,7.83984,0.113281,-1.11406,149.697
-7.9264e-02,7.57812,0.078125,-1.13867,149.16
-7.9256e-02,7.72656,0.125,-1.15391,149.678
-7.9248e-02,7.67578,0.160156,-1.12148,149.629
-7.9240e-02,7.85938,0.128906,-1.13008,149.697
-7.9232e-02,8.18359,0.144531,-1.06719,149.629
-7.9224e-02,8.24609,0.125,-1.07344,149.453
-7.9216e-02,8.375,0.136719,-1.08359,149.609
-7.9208e-02,8.55469,0.101562,-1.06133,149.697
-7.9200e-02,8.25391,0.125,-1.07148,149.658
-7.9192e-02,8.30859,0.078125,-1.11836,149.414
-7.9184e-02,8.41406,0.125,-1.07539,149.736
-7.9176e-02,8.48438,0.105469,-1.04805,149.697
-7.9168e-02,8.95312,0.0976562,-1.01094,149.697
-7.9160e-02,9.125,0.125,-1.01953,149.541
-7.9152e-02,9.09375,0.0859375,-1.01914,149.746
-7.9144e-02,9.16797,0.00390625,-1.01055,149.687
-7.9136e-02,8.90625,0.128906,-1.04453,149.609
-7.9128e-02,9,0.125,-1.0207,149.854
-7.9120e-02,9.11719,0.113281,-0.999609,149.717
-7.9112e-02,9.21875,0.132812,-1.01211,149.678
-7.9104e-02,9.62891,0.109375,-0.960938,149.736
-7.9096e-02,9.66016,0.109375,-0.938281,149.736
-7.9088e-02,9.875,0.164062,-0.968359,149.629
-7.9080e-02,9.82422,0.128906,-0.936328,149.658
-7.9072e-02,9.58203,0.0507812,-0.995313,149.6
-7.9064e-02,9.68359,0.136719,-0.989453,149.697
-7.9056e-02,9.81641,0.125,-0.952344,149.668
-7.9048e-02,9.86719,0.175781,-0.927734,149.346
-7.9040e-02,10.3672,0.09375,-0.883203,149.697
-7.9032e-02,10.4141,0.152344,-0.877734,149.619
-7.9024e-02,10.5312,0.140625,-0.863672,149.629
-7.9016e-02,10.5156,0.109375,-0.867578,149.668
-7.9008e-02,10.3906,0.125,-0.906641,149.668
-7.9000e-02,10.5039,0.132812,-0.870313,149.639
-7.8992e-02,10.4453,0.125,-0.864453,149.736
-7.8984e-02,10.6055,0.125,-0.867578,149.697
-7.8976e-02,11.1484,0.128906,-0.813281,149.697
-7.8968e-02,11.125,0.117188,-0.792578,149.697
-7.8960e-02,11.2109,0.140625,-0.795313,149.639
-7.8952e-02,11.3789,0.0625,-0.819922,149.521
-7.8944e-02,11.0312,0.136719,-0.814453,149.58
-7.8936e-02,11.1758,0.09375,-0.826953,149.697
-7.8928e-02,11.1758,0.128906,-0.801563,149.668
-7.8920e-02,11.3516,0.132812,-0.794141,149.678
-7.8912e-02,11.8711,0.238281,-0.758594,149.463
-7.8904e-02,11.8828,0.125,-0.730859,149.648
-7.8896e-02,11.9805,0.125,-0.712109,149.658
-7.8888e-02,12.1289,0.125,-0.716406,149.541
-7.8880e-02,11.8359,-0.0507812,-0.734375,149.775
-7.8872e-02,12.0312,0.113281,-0.736328,149.697
-7.8864e-02,12.0391,0.125,-0.734375,149.658
-7.8856e-02,12.0508,0.125,-0.695313,149.619
-7.8848e-02,12.6172,0.109375,-0.666406,149.629
-7.8840e-02,12.6328,0.125,-0.643359,149.697
-7.8832e-02,12.793,0.0976562,-0.638281,149.717
-7.8824e-02,12.8789,0.128906,-0.623438,149.639
-7.8816e-02,12.5742,0.109375,-0.661719,149.502
-7.8808e-02,12.707,0.140625,-0.659766,149.697
-7.8800e-02,12.7539,0.148438,-0.634375,149.697
-7.8792e-02,12.8359,0.144531,-0.626563,149.834
-7.8784e-02,13.3516,0.152344,-0.559766,149.668
-7.8776e-02,13.4023,0.0625,-0.5375,149.697
-7.8768e-02,13.6445,0.09375,-0.526172,149.746
-7.8760e-02,13.6211,0.125,-0.535547,149.629
-7.8752e-02,13.4219,0.183594,-0.556641,149.648
-7.8744e-02,13.4883,0.125,-0.540234,149.687
-7.8736e-02,13.5703,0.117188,-0.574609,149.551
-7.8728e-02,13.8359,0.121094,-0.548438,149.521
-7.8720e-02,14.1406,0.125,-0.483984,149.658
-7.8712e-02,14.3008,0.15625,-0.479297,149.697
-7.8704e-02,14.3594,0.109375,-0.466016,149.59
-7.8696e-02,14.6055,0.128906,-0.444531,149.697
-7.8688e-02,14.1875,0.144531,-0.455078,149.629
-7.8680e-02,14.2812,0.09375,-0.439453,149.385
-7.8672e-02,14.4141,0.136719,-0.455078,149.658
-7.8664e-02,14.4258,0.109375,-0.45625,149.629
-7.8656e-02,14.918,0.125,-0.386328,149.6
-7.8648e-02,15.0234,0.140625,-0.379297,149.717
-7.8640e-02,15.1367,0.117188,-0.358984,149.746
-7.8632e-02,15.1289,0.160156,-0.338281,149.727
-7.8624e-02,15.0156,0.125,-0.380078,149.736
-7.8616e-02,15,0.128906,-0.373438,149.697
-7.8608e-02,15.1094,0.140625,-0.366016,149.648
-7.8600e-02,15.2617,0.183594,-0.357813,149.736
-7.8592e-02,15.4961,0.125,-0.284766,149.736
-7.8584e-02,15.8359,0.3125,-0.2625,149.766
-7.8576e-02,15.8672,0.152344,-0.258984,149.629
-7.8568e-02,15.8828,0.277344,-0.25625,149.736
-7.8560e-02,15.6602,0.109375,-0.266016,149.697
-7.8552e-02,15.8633,0.125,-0.279297,149.561
-7.8544e-02,15.8359,0.136719,-0.289063,149.678
-7.8536e-02,15.9688,0.261719,-0.248047,149.697
-7.8528e-02,16.3828,0.449219,-0.170703,149.629
-7.8520e-02,16.3984,0.5625,-0.156641,149.648
-7.8512e-02,16.5391,0.613281,-0.126563,149.434
-7.8504e-02,16.6445,0.621094,-0.145703,149.668
-7.8496e-02,16.3555,0.519531,-0.182813,149.687
-7.8488e-02,16.4102,0.617188,-0.154297,149.736
-7.8480e-02,16.5781,0.765625,-0.139844,149.658
-7.8472e-02,16.6914,0.710938,-0.151172,149.727
-7.8464e-02,17,1.62891,-0.0925781,149.609
-7.8456e-02,17.168,2.06641,-0.0910156,149.678
-7.8448e-02,17.1484,2.14062,-0.0148438,149.629
-7.8440e-02,17.1523,2.60156,-0.0507813,149.697
-7.8432e-02,17.0234,1.10156,-0.0792969,149.365
-7.8424e-02,17.0469,1.58984,-0.0519531,149.775
-7.8416e-02,17.2188,2.83594,-0.0714844,149.678
-7.8408e-02,17.3438,4.88281,-0.0519531,149.658
-7.8400e-02,17.7734,15.7812,0.028125,149.6
-7.8392e-02,17.7539,17.457,-0.00742188,149.658
-7.8384e-02,17.8789,20.3789,-0.00273438,149.697
-7.8376e-02,17.8789,21.6289,-0.0226563,149.453
-7.8368e-02,17.7812,14.2812,-0.0183594,149.658
-7.8360e-02,17.7578,16.1562,0.00546875,149.629
-7.8352e-02,17.8789,18.9688,0.00429687,149.6
-7.8344e-02,18,20.3359,0.00976562,149.658
-7.8336e-02,18.3867,20.9102,-0.0214844,149.687
-7.8328e-02,18.4062,20.7852,-0.0335938,149.697
-7.8320e-02,18.6406,20.6445,-0.0359375,149.697
-7.8312e-02,18.5938,20.5508,-0.015625,149.697
-7.8304e-02,18.3984,20.7344,-0.0265625,149.668
-7.8296e-02,18.4336,20.6367,-0.0179688,149.717
-7.8288e-02,18.5469,20.8945,-0.0265625,149.619
-7.8280e-02,18.5547,20.6562,-0.0214844,149.697
-7.8272e-02,19.043,20.3633,-0.0210938,149.707
-7.8264e-02,19.0781,20.3984,-0.03125,149.648
-7.8256e-02,19.1094,20.3672,-0.0265625,149.814
-7.8248e-02,19.1211,20.2695,-0.0230469,149.785
-7.8240e-02,19.0469,20.3867,-0.0109375,149.658
-7.8232e-02,19.0664,20.3789,-0.0246094,149.697
-7.8224e-02,19.2617,20.3867,-0.0289063,149.59
-7.8216e-02,19.1797,20.3867,-0.0628906,149.6
-7.8208e-02,19.6484,20.5469,-0.0351563,149.639
-7.8200e-02,19.6406,20.6055,-0.0554688,149.736
-7.8192e-02,19.8633,20.3906,-0.0332031,149.404
-7.8184e-02,19.8633,20.6172,-0.0628906,149.639
-7.8176e-02,19.5625,20.5977,-0.0539063,149.551
-7.8168e-02,19.6094,20.5273,-0.0367188,149.658
-7.8160e-02,19.7852,20.582,-0.0550781,149.697
-7.8152e-02,19.8672,20.7148,-0.0355469,149.639
-7.8144e-02,20.2461,20.8945,-0.0570313,149.707
-7.8136e-02,20.3711,21.0781,-0.0558594,149.717
-7.8128e-02,20.3945,21.0625,-0.0671875,149.668
-7.8120e-02,20.4688,21.1602,-0.0371094,149.668
-7.8112e-02,20.1953,21.0156,-0.0402344,149.59
-7.8104e-02,20.3672,21.0547,-0.0644531,149.658
-7.8096e-02,20.4688,21.1562,-0.0265625,149.756
-7.8088e-02,20.5,21.0469,-0.0589844,149.355
-7.8080e-02,20.8711,21.4961,-0.0167969,149.697
-7.8072e-02,21.0234,21.6445,-0.0632813,149.697
-7.8064e-02,21.1211,21.668,-0.0421875,149.648
-7.8056e-02,21.1836,21.7266,-0.0476563,149.443
-7.8048e-02,20.832,21.5117,-0.0503906,149.59
-7.8040e-02,21.0781,21.5859,-0.0207031,149.697
-7.8032e-02,21.1484,21.6094,-0.0542969,149.736
-7.8024e-02,21.1445,21.7344,-0.0359375,149.658
-7.8016e-02,21.5312,22.1797,-0.0625,149.736
-7.8008e-02,21.6328,22.1719,-0.0460938,149.492
-7.8000e-02,21.6562,22.3008,-0.0363281,149.424
-7.7992e-02,21.8398,22.3164,-0.0515625,149.375
-7.7984e-02,21.5938,22.125,-0.0191406,149.678
-7.7976e-02,21.7109,22.1836,-0.0625,149.697
-7.7968e-02,21.7031,22.207,-0.0597656,149.678
-7.7960e-02,21.8281,22.3398,-0.0488281,149.619
-7.7952e-02,22.2227,22.6641,-0.0515625,149.189
-7.7944e-02,22.2891,22.7578,-0.0628906,149.492
-7.7936e-02,22.4023,22.8828,-0.03125,149.404
-7.7928e-02,22.4219,22.8789,-0.0714844,149.6
-7.7920e-02,22.207,22.707,-0.0453125,149.697
-7.7912e-02,22.293,22.75,-0.0398438,149.609
-7.7904e-02,22.4648,22.8555,-0.0324219,149.687
-7.7896e-02,22.4844,22.8438,-0.0636719,149.58
-7.7888e-02,22.8945,23.3594,-0.0558594,149.795
-7.7880e-02,22.9102,23.332,-0.040625,149.512
-7.7872e-02,22.957,23.3906,-0.0351563,149.111
-7.7864e-02,23.0117,23.4961,-0.04375,149.541
-7.7856e-02,22.8242,23.3281,-0.0367188,149.639
-7.7848e-02,22.9336,23.3594,-0.0285156,149.697
-7.7840e-02,23.0078,23.4844,-0.0691406,149.453
-7.7832e-02,23.0938,23.5312,-0.0597656,149.395
-7.7824e-02,23.3789,23.8008,-0.0292969,149.482
-7.7816e-02,23.4688,23.8789,-0.053125,149.551
-7.7808e-02,23.625,23.9688,-0.0351563,149.678
-7.7800e-02,23.6211,24.0898,-0.0242188,149.707
-7.7792e-02,23.4766,23.8164,-0.0390625,149.648
-7.7784e-02,23.5195,23.9102,-0.0695313,149.736
-7.7776e-02,23.4961,24.0312,-0.0449219,149.697
-7.7768e-02,23.668,24.082,-0.0234375,149.287
-7.7760e-02,24.0938,24.4102,-0.0824219,149.687
-7.7752e-02,24.1016,24.4414,-0.0402344,149.658
-7.7744e-02,24.1094,24.5273,-0.0652344,149.629
-7.7736e-02,24.1445,24.5664,-0.0535156,149.668
-7.7728e-02,24.0469,24.5586,-0.0394531,149.57
-7.7720e-02,24.0938,24.5195,-0.0308594,149.687
-7.7712e-02,24.1367,24.5938,-0.04375,149.775
-7.7704e-02,24.2188,24.6484,-0.0359375,149.678
-7.7696e-02,24.4805,24.9531,-0.0324219,149.697
-7.7688e-02,24.6328,25.1094,-0.0398438,149.697
-7.7680e-02,24.5742,24.9688,-0.0421875,149.414
-7.7672e-02,24.625,25.125,-0.0320313,149.697
-7.7664e-02,24.4922,24.9727,-0.0707031,149.609
-7.7656e-02,24.543,25.0078,-0.0707031,149.678
-7.7648e-02,24.7109,25.082,-0.0511719,149.521
-7.7640e-02,24.7891,25.1602,-0.0652344,149.648
-7.7632e-02,25.0781,25.5469,-0.0414063,149.697
-7.7624e-02,25.168,25.5703,-0.0640625,149.717
-7.7616e-02,25.1406,25.6523,-0.0515625,149.697
-7.7608e-02,25.2695,25.5859,-0.0351563,149.648
-7.7600e-02,25.0312,25.4414,-0.0238281,149.609
-7.7592e-02,25.1875,25.5234,-0.0246094,149.551
-7.7584e-02,25.2344,25.5195,-0.0558594,149.717
-7.7576e-02,25.2773,25.582,-0.0320313,149.795
-7.7568e-02,25.5547,25.8789,-0.0324219,149.609
-7.7560e-02,25.625,26.0312,-0.05,149.658
-7.7552e-02,25.8359,26.1172,-0.0339844,149.648
-7.7544e-02,25.8555,26.1406,-0.0414063,149.697
-7.7536e-02,25.5156,26.0078,-0.0300781,149.6
-7.7528e-02,25.668,26.082,-0.0304688,149.746
-7.7520e-02,25.6875,26.1406,-0.0445313,149.736
-7.7512e-02,25.7773,26.2109,-0.0421875,149.502
-7.7504e-02,26.1094,26.5664,-0.05,149.717
-7.7496e-02,26.1914,26.5859,-0.0746094,149.678
-7.7488e-02,26.1719,26.6406,-0.0457031,149.619
-7.7480e-02,26.3906,26.6953,-0.0675781,149.766
-7.7472e-02,26.2109,26.5156,-0.0640625,149.58
-7.7464e-02,26.2227,26.6328,-0.0425781,149.639
-7.7456e-02,26.2305,26.6289,-0.0605469,149.775
-7.7448e-02,26.4922,26.8359,-0.0207031,149.736
-7.7440e-02,26.6641,27.0625,-0.053125,149.551
-7.7432e-02,26.8125,27.2578,-0.0367188,149.736
-7.7424e-02,26.8789,27.2227,-0.0632813,149.629
-7.7416e-02,26.8633,27.3164,-0.0480469,149.717
-7.7408e-02,26.7305,27.168,-0.0421875,149.736
-7.7400e-02,26.7422,27.1719,-0.0257813,149.805
-7.7392e-02,26.8398,27.2422,-0.0613281,149.648
-7.7384e-02,26.9492,27.2734,-0.0546875,149.59
-7.7376e-02,27.332,27.6602,-0.046875,149.561
-7.7368e-02,27.3867,27.8008,-0.0363281,149.629
-7.7360e-02,27.4727,27.8789,-0.0597656,149.57
-7.7352e-02,27.5469,27.8633,-0.0226563,149.883
-7.7344e-02,27.3047,27.75,-0.0511719,149.658
-7.7336e-02,27.4688,27.7695,-0.00898438,149.453
-7.7328e-02,27.5,27.8438,-0.0488281,149.736
-7.7320e-02,27.5977,28.0703,-0.05,149.639
-7.7312e-02,27.8945,28.3789,-0.0414063,149.648
-7.7304e-02,28.0078,28.5312,-0.0394531,149.814
-7.7296e-02,28.1328,28.4531,-0.0453125,149.678
-7.7288e-02,28.2891,28.6445,-0.0417969,149.648
-7.7280e-02,28,28.3438,-0.0210938,149.687
-7.7272e-02,28.0156,28.4609,-0.0464844,149.736
-7.7264e-02,28.1133,28.5234,-0.0363281,149.697
-7.7256e-02,28.1914,28.5078,-0.0257813,149.775
-7.7248e-02,28.6719,29.1406,-0.0507813,149.59
-7.7240e-02,28.7227,29.1797,-0.0535156,149.619
-7.7232e-02,28.8672,29.2422,-0.0570313,149.697
-7.7224e-02,28.875,29.2969,-0.0550781,149.736
-7.7216e-02,28.5547,29.0039,-0.0296875,149.697
-7.7208e-02,28.7539,29.1562,-0.0539063,149.717
-7.7200e-02,28.8789,29.2148,-0.0589844,149.59
-7.7192e-02,28.9492,29.293,-0.0382813,149.697
-7.7184e-02,29.3477,29.7656,-0.0464844,149.883
-7.7176e-02,29.3906,29.793,-0.0199219,149.551
-7.7168e-02,29.3867,29.8672,-0.0363281,149.658
-7.7160e-02,29.5625,29.8789,-0.0484375,149.687
-7.7152e-02,29.3477,29.6953,-0.0355469,149.687
-7.7144e-02,29.3008,29.7852,-0.0578125,149.609
-7.7136e-02,29.4766,29.9844,-0.0617188,149.727
-7.7128e-02,29.5547,30.0859,-0.0675781,149.697
-7.7120e-02,30.0156,30.3594,-0.0792969,149.678
-7.7112e-02,29.9492,30.5312,-0.0421875,149.639
-7.7104e-02,30.1406,30.5547,-0.0578125,149.697
-7.7096e-02,30.1836,30.6406,-0.0367188,149.668
-7.7088e-02,30.0039,30.457,-0.0449219,149.746
-7.7080e-02,30.0938,30.5156,-0.0359375,149.678
-7.7072e-02,30.0625,30.5273,-0.0574219,149.844
-7.7064e-02,30.2422,30.6133,-0.0363281,149.785
-7.7056e-02,30.6289,30.9688,-0.028125,149.512
-7.7048e-02,30.5469,31.1094,-0.0699219,149.707
-7.7040e-02,30.6328,31.1445,-0.0546875,149.717
-7.7032e-02,30.8086,31.2266,-0.0472656,149.424
-7.7024e-02,30.4844,31.0312,-0.0371094,149.814
-7.7016e-02,30.625,31.0625,-0.0410156,149.453
-7.7008e-02,30.7383,31.125,-0.0488281,149.707
-7.7000e-02,30.7461,31.1797,-0.0625,149.619
-7.6992e-02,31.1289,31.5898,-0.0519531,149.717
-7.6984e-02,31.1719,31.5859,-0.0519531,149.697
-7.6976e-02,31.1406,31.6719,-0.0414063,149.668
-7.6968e-02,31.3789,31.7383,-0.0367188,149.697
-7.6960e-02,31.125,31.5547,-0.0402344,149.727
-7.6952e-02,31.2148,31.6328,-0.0628906,149.707
-7.6944e-02,31.2695,31.6914,-0.0472656,149.736
-7.6936e-02,31.3086,31.6406,-0.0574219,149.736
-7.6928e-02,31.5898,32.0781,-0.0402344,149.336
-7.6920e-02,31.6328,32.1172,-0.0636719,149.697
-7.6912e-02,31.6992,32.1602,-0.040625,149.687
-7.6904e-02,31.6758,32.1719,-0.0480469,149.6
-7.6896e-02,31.5703,31.9844,-0.0285156,149.717
-7.6888e-02,31.625,32.1094,-0.0402344,149.658
-7.6880e-02,31.7109,32.1133,-0.0390625,149.736
-7.6872e-02,31.7148,32.2695,-0.0457031,149.736
-7.6864e-02,31.9375,32.5586,-0.0304688,149.697
-7.6856e-02,32.0781,32.4219,-0.0226563,149.541
-7.6848e-02,32.1328,32.543,-0.0121094,149.668
-7.6840e-02,32.1406,32.6016,-0.03125,149.58
-7.6832e-02,32.0625,32.5,-0.053125,149.736
-7.6824e-02,32.0625,32.5703,-0.0597656,149.678
-7.6816e-02,32.1094,32.5781,-0.0492188,149.697
-7.6808e-02,32.1875,32.6133,-0.0398438,149.6
-7.6800e-02,32.3945,32.8359,-0.0546875,149.639
-7.6792e-02,32.3789,32.8633,-0.034375,149.736
-7.6784e-02,32.3672,32.8828,-0.0160156,149.609
-7.6776e-02,32.4258,32.8789,-0.0226563,149.717
-7.6768e-02,32.3516,32.8047,-0.0367188,149.775
-7.6760e-02,32.3594,32.7891,-0.0421875,149.658
-7.6752e-02,32.6172,32.8516,-0.059375,149.541
-7.6744e-02,32.6055,32.9531,-0.0453125,149.697
-7.6736e-02,32.7227,33.1406,-0.0550781,149.502
-7.6728e-02,32.6797,33.1445,-0.0335938,149.609
-7.6720e-02,32.6797,33.168,-0.0394531,149.395
-7.6712e-02,32.6406,33.2891,-0.0519531,149.775
-7.6704e-02,32.7734,33.125,-0.0175781,149.648
-7.6696e-02,32.8203,33.1094,-0.0359375,149.658
-7.6688e-02,32.6836,33.1523,-0.065625,149.775
-7.6680e-02,32.6523,33.1562,-0.0402344,149.629
-7.6672e-02,32.8789,33.3867,-0.0558594,149.697
-7.6664e-02,32.9531,33.3867,-0.0371094,149.648
-7.6656e-02,33.0469,33.5469,-0.0410156,149.717
-7.6648e-02,33.125,33.4414,-0.0414063,149.629
-7.6640e-02,32.8945,33.3555,-0.0523438,149.463
-7.6632e-02,32.9414,33.3828,-0.0550781,149.502
-7.6624e-02,33.125,33.3711,-0.0488281,149.697
-7.6616e-02,33.0938,33.5352,-0.0453125,149.658
-7.6608e-02,33.1406,33.6406,-0.04375,149.697
-7.6600e-02,33.1602,33.6484,-0.0546875,149.639
