Leistungselektronik/Labor_Wechselstrom/TEK00002.CSV

Model,TBS2104
Firmware Version,v1.26.0

Point Format,Y,,,
Horizontal Units,S,,,
Horizontal Scale,0.01,,,
Sample Interval,8e-06,,,
Filter Frequency,1e+08,,,
Record Length,20000,,,
Gating,0.0% to 100.0%,0.0% to 100.0%,0.0% to 100.0%,0.0% to 100.0%
Probe Attenuation,20,20,10,100
Vertical Units,V,V,A,V
Vertical Offset,0,0,0,0
Vertical Scale,20,20,5,50
Label,,,,
TIME,CH1,CH2,CH3,CH4
-8.0000e-02,-1.43359,-0.164062,-10.7764,90.0781
-7.9992e-02,-1.01562,-0.105469,-10.7813,90.2148
-7.9984e-02,-0.921875,-0.105469,-10.7793,90.3027
-7.9976e-02,-0.890625,-0.195312,-10.7227,89.1309
-7.9968e-02,-0.859375,-0.152344,-10.8838,90
-7.9960e-02,-0.367188,-0.132812,-10.7061,90.2734
-7.9952e-02,-0.355469,-0.128906,-10.793,90.1953
-7.9944e-02,-0.675781,-0.125,-10.6748,90.2734
-7.9936e-02,-0.582031,-0.144531,-10.8037,90.1562
-7.9928e-02,-0.566406,0.277344,-10.8008,90.0391
-7.9920e-02,-0.535156,-0.144531,-10.7637,90.2344
-7.9912e-02,-0.121094,-0.121094,-10.8682,90.9375
-7.9904e-02,-0.046875,-0.105469,-10.7871,90.1172
-7.9896e-02,0.078125,-0.152344,-10.8721,90.293
-7.9888e-02,0.136719,-0.121094,-10.8799,90
-7.9880e-02,0.109375,-0.183594,-10.9756,90.0391
-7.9872e-02,0.148438,-0.09375,-10.7686,90.1172
-7.9864e-02,0.210938,-0.136719,-10.7773,89.9219
-7.9856e-02,0.671875,-0.136719,-10.7764,90.9473
-7.9848e-02,0.226562,-0.117188,-10.8916,90.2734
-7.9840e-02,0.777344,-0.121094,-10.7822,91.2109
-7.9832e-02,0.8125,-0.078125,-10.877,89.2578
-7.9824e-02,0.5625,-0.117188,-10.8643,90.0781
-7.9816e-02,0.984375,-0.09375,-10.7383,90.1562
-7.9808e-02,1.01562,0.207031,-10.7725,89.9609
-7.9800e-02,1.48438,-0.464844,-10.6543,89.2969
-7.9792e-02,1.53516,-0.464844,-10.6611,89.1406
-7.9784e-02,1.57812,-0.441406,-10.8584,90.3125
-7.9776e-02,0.890625,-0.136719,-10.7197,91.2207
-7.9768e-02,1.33984,-0.121094,-10.7695,90.3125
-7.9760e-02,1.73438,-0.15625,-10.8516,89.8828
-7.9752e-02,1.38672,-0.164062,-10.7588,90.0391
-7.9744e-02,1.44531,-0.53125,-10.7617,90.3516
-7.9736e-02,1.89062,-0.09375,-10.6621,90.0391
-7.9728e-02,1.92188,-0.121094,-10.7266,91.1523
-7.9720e-02,2.01562,-0.125,-10.7305,90.0391
-7.9712e-02,2.07422,-0.144531,-10.707,90.1562
-7.9704e-02,2.13281,-0.140625,-10.5225,90.2344
-7.9696e-02,2.56641,-0.109375,-10.6328,90.3125
-7.9688e-02,2.62891,-0.515625,-10.665,89.7754
-7.9680e-02,2.74219,-0.519531,-10.7119,90
-7.9672e-02,2.43359,-0.445312,-10.8271,91.2598
-7.9664e-02,2.86328,-0.464844,-10.627,90.2734
-7.9656e-02,2.53516,-0.414062,-10.707,89.3164
-7.9648e-02,2.90625,-0.121094,-10.6309,89.3555
-7.9640e-02,3.10938,-0.128906,-10.623,90.2344
-7.9632e-02,3.10938,-0.121094,-10.6992,89.8828
-7.9624e-02,3.20312,-0.105469,-10.7949,90.3418
-7.9616e-02,3.63281,-0.121094,-10.6738,89.1797
-7.9608e-02,3.36719,-0.109375,-10.7188,90.3711
-7.9600e-02,3.77734,-0.453125,-10.7979,90.3125
-7.9592e-02,3.83984,-0.0625,-10.5957,90.1562
-7.9584e-02,3.875,0.015625,-10.5557,90.3027
-7.9576e-02,3.89453,0.289062,-10.6328,90.2734
-7.9568e-02,4.01562,-0.121094,-10.7021,90.3613
-7.9560e-02,3.67578,-0.078125,-10.6807,90.0781
-7.9552e-02,4.21484,-0.136719,-10.7764,90.1953
-7.9544e-02,4.125,-0.121094,-10.5732,90.459
-7.9536e-02,4.21484,-0.136719,-10.5742,90.3125
-7.9528e-02,4.30469,-0.160156,-10.6855,90.3027
-7.9520e-02,4.35156,-0.09375,-10.6836,90
-7.9512e-02,4.81641,0.3125,-10.5664,90.1562
-7.9504e-02,4.55859,-0.144531,-10.6826,90.2246
-7.9496e-02,5,-0.125,-10.7344,90.8594
-7.9488e-02,4.98438,-0.09375,-10.4834,90.3125
-7.9480e-02,5.10547,-0.488281,-10.5479,90.8789
-7.9472e-02,5.14062,-0.148438,-10.5322,90.1562
-7.9464e-02,5.18359,-0.527344,-10.5459,91.0449
-7.9456e-02,5.26953,-0.105469,-10.6377,90.1562
-7.9448e-02,5.70312,-0.128906,-10.6338,90.2344
-7.9440e-02,5.46484,-0.125,-10.5459,90.0391
-7.9432e-02,5.875,-0.105469,-10.5303,90.0391
-7.9424e-02,5.57812,-0.441406,-10.5068,90.0391
-7.9416e-02,5.96875,-0.136719,-10.6064,90.2344
-7.9408e-02,5.57812,-0.484375,-10.5156,90.1172
-7.9400e-02,6.46094,-0.148438,-10.4551,90.2734
-7.9392e-02,6.09375,0.25,-10.5117,89.1113
-7.9384e-02,6.14062,-0.09375,-10.6045,90.1953
-7.9376e-02,6.125,-0.105469,-10.4121,90.3125
-7.9368e-02,6.36328,-0.449219,-10.4053,90.3809
-7.9360e-02,6.80859,-0.09375,-10.3516,89.209
-7.9352e-02,6.42578,-0.136719,-10.5576,90.1562
-7.9344e-02,7.29297,-0.121094,-10.3984,91.0156
-7.9336e-02,6.92188,-0.148438,-10.4053,91.0742
-7.9328e-02,7.37109,-0.121094,-10.5039,91.0352
-7.9320e-02,7.09375,-0.195312,-10.5283,89.8437
-7.9312e-02,7.13281,-0.445312,-10.4482,89.2578
-7.9304e-02,7.56641,-0.046875,-10.4443,90.0391
-7.9296e-02,7.65625,-0.144531,-10.583,90.1953
-7.9288e-02,6.92578,-0.179688,-10.543,90.2344
-7.9280e-02,7.37891,-0.121094,-10.5273,90.2344
-7.9272e-02,7.76953,-0.121094,-10.4268,90.1953
-7.9264e-02,7.8125,-0.132812,-10.4287,90.2344
-7.9256e-02,7.41016,0.238281,-10.1514,90.1172
-7.9248e-02,7.95312,-0.109375,-10.3125,90.1172
-7.9240e-02,8.07812,-0.078125,-10.3301,90.0781
-7.9232e-02,8.07812,-0.121094,-10.3828,90
-7.9224e-02,8.10547,-0.0898438,-10.3984,89.9609
-7.9216e-02,8.58594,-0.46875,-10.2861,90.2734
-7.9208e-02,8.21094,-0.164062,-10.3154,89.6973
-7.9200e-02,8.24219,-0.125,-10.2998,90.2734
-7.9192e-02,8.30859,-0.105469,-10.3115,90.1562
-7.9184e-02,8.39453,-0.140625,-10.4072,89.8437
-7.9176e-02,8.37109,-0.140625,-10.1748,90.9668
-7.9168e-02,8.51953,-0.546875,-10.2773,90.3125
-7.9160e-02,8.85938,-0.140625,-10.2861,90.1172
-7.9152e-02,8.58203,-0.078125,-10.2861,90.1172
-7.9144e-02,8.64062,-0.15625,-10.2617,90.918
-7.9136e-02,9.09766,-0.136719,-10.2422,90.1172
-7.9128e-02,9.55078,-0.539062,-10.2686,89.1309
-7.9120e-02,9.125,-0.160156,-10.2705,91.1133
-7.9112e-02,9.20703,-0.417969,-10.2188,90.2734
-7.9104e-02,9.30078,-0.132812,-10.3379,90
-7.9096e-02,9.36328,-0.148438,-10.2148,90.2344
-7.9088e-02,9.78516,-0.527344,-10.1104,89.1016
-7.9080e-02,9.82422,-0.433594,-10.1084,89.1406
-7.9072e-02,9.48438,-0.472656,-10.1172,90.2344
-7.9064e-02,10.0156,-0.03125,-10.3096,90.0391
-7.9056e-02,9.95312,-0.464844,-10.1865,90.3125
-7.9048e-02,10.0938,-0.464844,-10.1035,90.3613
-7.9040e-02,10.1094,-0.128906,-10.1992,90.0391
-7.9032e-02,10.1445,-0.136719,-10.0723,91.0937
-7.9024e-02,10.1719,-0.125,-10.0547,90.2441
-7.9016e-02,10.2695,-0.132812,-10.0801,90.1953
-7.9008e-02,10.3828,-0.109375,-10.0645,90.1172
-7.9000e-02,10.7969,-0.121094,-10.0264,89.9609
-7.8992e-02,11.1484,-0.121094,-10.0469,90.2734
-7.8984e-02,10.8008,-0.417969,-10.1357,91.0156
-7.8976e-02,10.6094,-0.105469,-10.0264,89.1016
-7.8968e-02,10.5781,-0.128906,-10.0264,90.1172
-7.8960e-02,11.1211,-0.53125,-9.92578,90.8691
-7.8952e-02,11.125,-0.109375,-9.91797,90.3223
-7.8944e-02,11.1953,-0.121094,-10.1025,89.8437
-7.8936e-02,11.2109,-0.503906,-9.91895,90
-7.8928e-02,11.207,-0.125,-10,91.3281
-7.8920e-02,11.3281,-0.480469,-10.0547,89.1992
-7.8912e-02,11.8359,-0.121094,-9.96973,90.2734
-7.8904e-02,11.8477,-0.121094,-10.0908,89.8828
-7.8896e-02,11.4961,-0.382812,-10.1221,89.248
-7.8888e-02,11.9531,-0.121094,-9.95605,90
-7.8880e-02,12.0469,-0.460938,-9.96191,90.3711
-7.8872e-02,12.0938,-0.078125,-9.8418,90.0781
-7.8864e-02,11.7227,-0.128906,-10.0371,90.3516
-7.8856e-02,12.1523,-0.121094,-9.81836,90.1562
-7.8848e-02,12.2578,-0.121094,-9.90332,90.1172
-7.8840e-02,11.8984,-0.121094,-9.93066,90.2344
-7.8832e-02,12.3516,-0.136719,-9.80957,91.0254
-7.8824e-02,12.7656,-0.136719,-9.92285,89.0723
-7.8816e-02,12.3945,-0.121094,-9.88184,90.3125
-7.8808e-02,12.8672,-0.046875,-9.87402,90.1953
-7.8800e-02,12.9531,-0.109375,-9.87109,90.2734
-7.8792e-02,13.0312,-0.0625,-9.88477,90.0391
-7.8784e-02,13.1328,-0.125,-9.77637,90.3516
-7.8776e-02,13.5391,-0.121094,-9.78027,90.8008
-7.8768e-02,13.625,-0.5,-9.71875,90.2344
-7.8760e-02,13.2383,0,-9.74707,89.8828
-7.8752e-02,13.6992,-0.125,-9.6543,90.0391
-7.8744e-02,13.4023,-0.140625,-9.66602,89.1211
-7.8736e-02,13.9219,-0.121094,-9.61133,90.2344
-7.8728e-02,13.9688,-0.136719,-9.69238,90.1953
-7.8720e-02,14.0312,-0.136719,-9.70898,90.2734
-7.8712e-02,13.9531,-0.132812,-9.7002,90.0781
-7.8704e-02,13.7266,0,-9.87598,90.2734
-7.8696e-02,14.1367,-0.117188,-9.76465,90.1953
-7.8688e-02,14.1875,-0.132812,-9.67871,89.1504
-7.8680e-02,14.625,-0.078125,-9.66113,90.1562
-7.8672e-02,14.7539,-0.078125,-9.55176,90.2344
-7.8664e-02,14.4336,-0.105469,-9.6377,90.9277
-7.8656e-02,14.8516,-0.0625,-9.71777,90.9082
-7.8648e-02,14.9844,-0.109375,-9.63672,90.0781
-7.8640e-02,14.9531,-0.121094,-9.62793,90.2734
-7.8632e-02,15.1094,-0.1875,-9.4502,90.8496
-7.8624e-02,15.1211,-0.09375,-9.57813,90.1562
-7.8616e-02,15.1953,-0.472656,-9.50781,90.3223
-7.8608e-02,15.1562,-0.148438,-9.46387,90.2539
-7.8600e-02,15.1523,-0.152344,-9.39941,89.4336
-7.8592e-02,15.3359,-0.046875,-9.40723,90.1758
-7.8584e-02,15.3828,-0.128906,-9.29785,90.918
-7.8576e-02,15.4219,-0.121094,-9.43848,90.1953
-7.8568e-02,15.832,0.015625,-9.37695,89.1992
-7.8560e-02,15.9375,-0.015625,-9.50098,90.1172
-7.8552e-02,15.9219,-0.183594,-9.46191,90.3027
-7.8544e-02,16.1094,-0.121094,-9.33398,89.4043
-7.8536e-02,16.1094,-0.105469,-9.31348,89.7266
-7.8528e-02,16.1641,-0.125,-9.32715,90.2734
-7.8520e-02,16.2695,-0.09375,-9.4043,89.082
-7.8512e-02,16.6172,-0.472656,-9.38574,89.9609
-7.8504e-02,16.3555,-0.121094,-9.38184,89.7656
-7.8496e-02,16.7891,-0.132812,-9.35254,89.4336
-7.8488e-02,16.7773,-0.40625,-9.28125,90.0781
-7.8480e-02,16.8594,-0.136719,-9.34473,90.1172
-7.8472e-02,16.9688,-0.402344,-9.22266,89.9609
-7.8464e-02,16.9688,-0.09375,-9.32715,90.2734
-7.8456e-02,16.6484,-0.457031,-9.3418,90.2344
-7.8448e-02,17.0977,-0.078125,-9.19824,90.0781
-7.8440e-02,17.1406,-0.480469,-9.13086,90.3711
-7.8432e-02,17.5703,-0.144531,-9.0918,90.1172
-7.8424e-02,17.6367,-0.441406,-8.99805,90.2344
-7.8416e-02,17.2656,-0.09375,-9.20898,90.9473
-7.8408e-02,17.6875,-0.105469,-9.12793,90.2734
-7.8400e-02,17.7656,-0.140625,-9.06836,90.1953
-7.8392e-02,17.418,-0.136719,-9.0459,91.2109
-7.8384e-02,17.8594,-0.453125,-9.14355,89.1797
-7.8376e-02,17.9219,-0.410156,-9.14258,90.0781
-7.8368e-02,17.9844,-0.121094,-9.01563,90.1953
-7.8360e-02,17.6328,-0.441406,-9.03809,90
-7.8352e-02,18.125,-0.109375,-8.91602,90.2441
-7.8344e-02,18.1406,-0.121094,-9.09082,89.8828
-7.8336e-02,18.5898,-0.507812,-8.9082,90.0781
-7.8328e-02,18.6016,-0.453125,-8.95996,89.2773
-7.8320e-02,18.6758,-0.449219,-8.87598,90.9961
-7.8312e-02,18.6758,-0.105469,-8.95801,90.0391
-7.8304e-02,18.3555,-0.125,-8.85645,90.2734
-7.8296e-02,18.8203,-0.136719,-8.93359,90.4199
-7.8288e-02,18.5078,-0.078125,-8.93652,90.3125
-7.8280e-02,18.875,-0.136719,-8.90723,90.3516
-7.8272e-02,18.9062,-0.121094,-8.91309,90.1953
-7.8264e-02,18.6172,-0.105469,-8.86621,90.1953
-7.8256e-02,19.1094,-0.121094,-8.80273,90.2734
-7.8248e-02,19.1094,-0.449219,-8.8916,89.9219
-7.8240e-02,19.1211,-0.136719,-8.83398,89.0625
-7.8232e-02,19.1758,-0.0625,-8.75781,91.0254
-7.8224e-02,19.1211,0.296875,-8.72656,90.1172
-7.8216e-02,19.3945,-0.125,-8.61328,90.1953
-7.8208e-02,19.3242,-0.078125,-8.62305,90.1562
-7.8200e-02,19.7539,-0.359375,-8.83691,90.2734
-7.8192e-02,19.4102,-0.105469,-8.77637,90.8398
-7.8184e-02,19.5039,-0.128906,-8.68652,90.4297
-7.8176e-02,19.582,0,-8.67773,90.3711
-7.8168e-02,19.9375,-0.40625,-8.69629,90.1562
-7.8160e-02,20.0156,-0.046875,-8.58105,90
-7.8152e-02,20.1094,-0.03125,-8.62012,90.1562
-7.8144e-02,20.125,-0.417969,-8.62109,90.2344
-7.8136e-02,20.125,-0.105469,-8.61816,90.1562
-7.8128e-02,20.2383,-0.015625,-8.53418,90.0391
-7.8120e-02,20.2266,-0.09375,-8.41602,90
-7.8112e-02,20.6953,-0.09375,-8.51563,90.3125
-7.8104e-02,20.7578,-0.0625,-8.68652,88.8672
-7.8096e-02,20.7539,-0.140625,-8.38184,90.1562
-7.8088e-02,20.8281,-0.109375,-8.36035,89.1895
-7.8080e-02,20.8047,-0.0625,-8.43164,90.2344
-7.8072e-02,21,-0.109375,-8.45215,90.2734
-7.8064e-02,20.9531,-0.144531,-8.41699,90.2344
-7.8056e-02,20.9688,-0.03125,-8.51465,91.0254
-7.8048e-02,20.6875,-0.125,-8.50781,90.2344
-7.8040e-02,21.1484,-0.0898438,-8.42285,91.2207
-7.8032e-02,20.7969,-0.382812,-8.39844,90.1953
-7.8024e-02,21.2109,-0.078125,-8.29492,90.0391
-7.8016e-02,21.793,-0.460938,-8.46387,90.0391
-7.8008e-02,21.6758,-0.105469,-8.17578,90.1562
-7.8000e-02,21.3789,-0.390625,-8.1416,90.2441
-7.7992e-02,21.418,-0.078125,-8.1582,90.2344
-7.7984e-02,21.8398,0.03125,-8.3291,90.2734
-7.7976e-02,21.5273,-0.09375,-8.32617,90.3516
-7.7968e-02,21.9688,0.335938,-8.27441,90.1172
-7.7960e-02,22.5078,-0.03125,-8.20996,89.9219
-7.7952e-02,22.0781,-0.15625,-8.08008,90.1562
-7.7944e-02,22.0938,-0.457031,-8.16797,90.1953
-7.7936e-02,22.1445,-0.09375,-8.15332,91.4648
-7.7928e-02,22.5547,0,-8.0293,90.2734
-7.7920e-02,22.3047,-0.109375,-8.01172,91.1719
-7.7912e-02,22.332,-0.015625,-8.02344,89.9219
-7.7904e-02,22.7461,-0.464844,-8.10254,90.1172
-7.7896e-02,22.3672,0.324219,-7.86914,90.1172
-7.7888e-02,22.8477,-0.375,-8.01172,88.8574
-7.7880e-02,22.8945,-0.09375,-7.9668,89.1113
-7.7872e-02,22.8984,-0.140625,-7.95313,89.2578
-7.7864e-02,22.9844,-0.0625,-7.83594,89.1797
-7.7856e-02,23.0742,0.015625,-7.84668,90.2344
-7.7848e-02,23.1211,-0.105469,-7.85254,90.3125
-7.7840e-02,23.1875,-0.078125,-7.88477,90.0391
-7.7832e-02,23.1484,-0.03125,-7.93555,90.0391
-7.7824e-02,23.5469,-0.046875,-7.87598,90.0781
-7.7816e-02,23.6133,-0.0625,-7.80176,90.0781
-7.7808e-02,23.3242,-0.09375,-7.76953,90.0781
-7.7800e-02,23.7539,-0.046875,-7.84961,90.1172
-7.7792e-02,23.4414,-0.105469,-7.6543,90.0391
-7.7784e-02,23.4609,-0.015625,-7.71484,90.1953
-7.7776e-02,23.4805,-0.046875,-7.80859,90.0781
-7.7768e-02,23.8945,-0.0625,-7.71875,90.2344
-7.7760e-02,24.3359,-0.449219,-7.69043,90.1562
-7.7752e-02,24.4023,-0.09375,-7.57715,90.2734
-7.7744e-02,24.0781,-0.09375,-7.47656,90.1953
-7.7736e-02,24.125,-0.046875,-7.65137,90.2051
-7.7728e-02,24.1758,0.015625,-7.57324,90.1953
-7.7720e-02,24.1562,-0.125,-7.46582,90.3125
-7.7712e-02,24.1836,0.363281,-7.48438,90.3516
-7.7704e-02,24.6328,0,-7.51563,90.9473
-7.7696e-02,24.6602,-0.101562,-7.59961,90.1172
-7.7688e-02,24.375,-0.121094,-7.37891,90.957
-7.7680e-02,24.7773,-0.136719,-7.37793,90.8496
-7.7672e-02,24.7812,-0.0625,-7.4541,89.2285
-7.7664e-02,24.4492,-0.0625,-7.46191,90.2734
-7.7656e-02,24.8398,-0.09375,-7.41016,90.1953
-7.7648e-02,24.5625,-0.0625,-7.4873,90.2344
-7.7640e-02,25.4102,0.015625,-7.39746,91.1523
-7.7632e-02,24.9375,-0.121094,-7.49609,90.1562
-7.7624e-02,25.3945,-0.078125,-7.38867,90.9473
-7.7616e-02,25.125,-0.0625,-7.39258,90.1172
-7.7608e-02,25.5352,0.03125,-7.27539,89.1895
-7.7600e-02,25.1562,-0.046875,-7.08594,90.3125
-7.7592e-02,25.1875,-0.121094,-7.23047,90.3809
-7.7584e-02,25.2578,-0.015625,-7.23047,91.1133
-7.7576e-02,25.3164,-0.121094,-7.20313,90.1562
-7.7568e-02,25.3711,-0.078125,-7.00684,90.2344
-7.7560e-02,25.7148,-0.015625,-7.18652,90.3223
-7.7552e-02,25.832,0.03125,-7.06543,90.1953
-7.7544e-02,25.4102,-0.078125,-7.05957,90.0781
-7.7536e-02,25.4805,-0.078125,-7.1543,89.1406
-7.7528e-02,26,0.328125,-7.13184,90.2734
-7.7520e-02,25.9531,-0.414062,-7.13477,89.8437
-7.7512e-02,26,-0.109375,-6.98438,90.0781
-7.7504e-02,26.125,-0.472656,-6.90527,90.0391
-7.7496e-02,26.1094,-0.03125,-6.95801,89.1992
-7.7488e-02,26.1797,-0.433594,-6.875,90.1562
-7.7480e-02,26.125,-0.03125,-6.9541,90.1562
-7.7472e-02,26.1758,-0.128906,-6.82227,90.3125
-7.7464e-02,26.5938,-0.0898438,-7.01855,90.3125
-7.7456e-02,26.6523,-0.09375,-6.95703,90.2344
-7.7448e-02,26.7227,-0.078125,-6.89453,90.3125
-7.7440e-02,26.707,-0.03125,-6.68164,89.2871
-7.7432e-02,26.4023,-0.015625,-6.78906,90.2734
-7.7424e-02,26.875,-0.109375,-6.73242,90.3027
-7.7416e-02,26.4648,-0.03125,-6.73438,90.2734
-7.7408e-02,26.8984,-0.121094,-6.61914,90.2734
-7.7400e-02,26.8711,-0.136719,-6.68945,90.3125
-7.7392e-02,26.8945,-0.429688,-6.60254,90.4004
-7.7384e-02,27.0469,-0.382812,-6.69336,90.2344
-7.7376e-02,27.1367,-0.015625,-6.50391,90.2344
-7.7368e-02,27.1211,-0.046875,-6.45801,91.2988
-7.7360e-02,27.6406,-0.0625,-6.62402,89.8828
-7.7352e-02,27.5508,-0.046875,-6.53027,89.082
-7.7344e-02,27.2461,0.015625,-6.63379,90.0391
-7.7336e-02,27.2344,0.015625,-6.39746,90.3125
-7.7328e-02,27.8008,0.046875,-6.50391,90.1172
-7.7320e-02,27.8164,0,-6.46191,90
-7.7312e-02,27.8359,-0.121094,-6.45898,90
-7.7304e-02,28.2148,-0.09375,-6.3584,90.9766
-7.7296e-02,27.9219,-0.109375,-6.46191,90.2734
-7.7288e-02,27.9219,-0.0625,-6.39941,90.2344
-7.7280e-02,27.9375,0.03125,-6.21094,91.1133
-7.7272e-02,28.1523,-0.40625,-6.39746,91.1914
-7.7264e-02,28.0859,-0.0625,-6.23828,91.1133
-7.7256e-02,28.1094,-0.03125,-6.26855,90.1953
-7.7248e-02,28.1602,0.339844,-6.25391,90.9863
-7.7240e-02,28.2539,0.078125,-6.23828,90.2734
-7.7232e-02,28.2812,-0.03125,-6.41211,90.3418
-7.7224e-02,28.3633,0,-6.2041,90.1953
-7.7216e-02,28.7812,-0.046875,-6.18359,90.2344
-7.7208e-02,28.8086,-0.0898438,-6.0918,90.2734
-7.7200e-02,28.8984,0,-6.26563,90.3418
-7.7192e-02,28.8945,0.015625,-6.13867,90.1562
-7.7184e-02,29.0312,0,-6.0459,89.3457
-7.7176e-02,29.1094,-0.046875,-6.05371,90.2344
-7.7168e-02,29.1094,-0.046875,-5.99609,89.2383
-7.7160e-02,29.1367,0,-6.08789,89.4824
-7.7152e-02,29.1641,0,-6.09473,90.2344
-7.7144e-02,29.1484,-0.109375,-5.96387,89.1504
-7.7136e-02,29.5742,0.078125,-5.9502,90.0781
-7.7128e-02,29.3867,0.347656,-5.93848,90.1172
-7.7120e-02,29.7617,0.03125,-5.9248,89.4043
-7.7112e-02,29.418,-0.015625,-5.71094,90.1172
-7.7104e-02,29.9258,-0.417969,-6.02637,90.2148
-7.7096e-02,29.9297,-0.0625,-5.76563,90.3613
-7.7088e-02,29.9219,-0.109375,-5.87402,90.1172
-7.7080e-02,29.9531,0.375,-5.71484,91.2207
-7.7072e-02,30.1094,0.0625,-5.76172,90.3809
-7.7064e-02,30.0469,-0.109375,-5.70508,90.2344
-7.7056e-02,30.4336,-0.417969,-5.68457,90.1953
-7.7048e-02,30.1953,-0.0625,-5.69531,90.1953
-7.7040e-02,30.6445,-0.078125,-5.48438,90.2734
-7.7032e-02,30.3984,-0.015625,-5.64453,90.4004
-7.7024e-02,30.7422,0.332031,-5.54395,90.1172
-7.7016e-02,30.7383,0,-5.55176,90.1562
-7.7008e-02,30.418,0.046875,-5.61035,90.1172
-7.7000e-02,30.8242,-0.015625,-5.50781,89.2285
-7.6992e-02,30.8711,-0.015625,-5.51465,90.1953
-7.6984e-02,31.3672,-0.121094,-5.58008,91.0547
-7.6976e-02,30.5977,-0.386719,-5.43945,89.1895
-7.6968e-02,31.0312,-0.046875,-5.36523,90.1172
-7.6960e-02,31.0664,0.015625,-5.36719,90.0781
-7.6952e-02,31.125,0.015625,-5.41895,91.0059
-7.6944e-02,31.5156,-0.402344,-5.49219,90.4004
-7.6936e-02,31.1797,-0.078125,-5.26855,90.1172
-7.6928e-02,31.6211,0.03125,-5.26953,90.3125
-7.6920e-02,31.2734,-0.046875,-5.23438,90.1562
-7.6912e-02,31.6133,-0.015625,-5.23145,90.1172
-7.6904e-02,31.3438,0.0625,-5.30859,90.2344
-7.6896e-02,31.3828,0.015625,-5.2041,90.3516
-7.6888e-02,31.4375,0.03125,-5.1582,90.3711
-7.6880e-02,31.8555,0.03125,-5.34766,90.3516
-7.6872e-02,31.8516,0.015625,-5.06738,90.2734
-7.6864e-02,31.9375,-0.015625,-5.04199,90.1172
-7.6856e-02,31.8789,-0.078125,-5.11426,90.1172
-7.6848e-02,31.9688,-0.0625,-5.08789,90.293
-7.6840e-02,32.3867,0.03125,-4.87402,90.3125
-7.6832e-02,32.1094,0.03125,-4.86426,90.1953
-7.6824e-02,32.0859,0.046875,-5.04297,90.2344
-7.6816e-02,32.0156,-0.046875,-4.95117,90.3809
-7.6808e-02,32.0938,-0.03125,-4.85156,90.1562
-7.6800e-02,32.1328,0,-4.82422,91.2012
-7.6792e-02,32.5352,0.03125,-4.68848,90.2734
-7.6784e-02,32.125,-0.046875,-4.67676,90.2832
-7.6776e-02,32.2148,-0.0625,-4.66406,91.0449
-7.6768e-02,31.8711,0,-4.76953,89.9609
-7.6760e-02,32.625,-0.339844,-4.82617,91.1719
-7.6752e-02,32.2734,-0.078125,-4.81641,89.8437
-7.6744e-02,32.7188,0.0625,-4.6084,90.2344
-7.6736e-02,32.7227,0,-4.75781,90.1172
-7.6728e-02,32.3945,0,-4.64453,90
-7.6720e-02,32.3984,0.015625,-4.64941,90.3125
-7.6712e-02,32.8164,-0.03125,-4.62402,90.4687
-7.6704e-02,32.7695,0.09375,-4.62988,90.2344
-7.6696e-02,32.8555,0.03125,-4.63281,90.2344
-7.6688e-02,32.8516,-0.339844,-4.36523,91.1914
-7.6680e-02,32.5469,0,-4.58398,89.248
-7.6672e-02,33.293,0.078125,-4.57031,90.9961
-7.6664e-02,32.457,0.03125,-4.41309,89.1211
-7.6656e-02,32.9219,-0.410156,-4.25781,90.2344
-7.6648e-02,32.6367,0.03125,-4.38379,91.1133
-7.6640e-02,32.5625,0.0625,-4.3877,90.2344
-7.6632e-02,32.9844,0.03125,-4.38965,90.3125
-7.6624e-02,33.0156,0.03125,-4.34473,91.3477
-7.6616e-02,32.9688,-0.046875,-4.26172,89.9609
-7.6608e-02,33.418,0.015625,-4.20898,89.3262
-7.6600e-02,33.0469,-0.03125,-4.30371,90.1562
-7.6592e-02,33.1367,0,-4.27441,90.3125
-7.6584e-02,33.125,0.046875,-4.26074,90.3418
